<svg width="18" height="18" viewBox="0 0 18 18" fill="none" xmlns="http://www.w3.org/2000/svg">
<path d="M17 8.99927C17 13.4175 13.4183 16.9993 9 16.9993C4.58172 16.9993 1 13.4175 1 8.99927C1 4.58099 4.58172 0.999268 9 0.999268C13.4183 0.999268 17 4.58099 17 8.99927Z" fill="#FFD400" stroke="#FFD400" stroke-width="2"/>
<mask id="mask0" mask-type="alpha" maskUnits="userSpaceOnUse" x="0" y="-1" width="18" height="19">
<path d="M17 8.99927C17 13.4175 13.4183 16.9993 9 16.9993C4.58172 16.9993 1 13.4175 1 8.99927C1 4.58099 4.58172 0.999268 9 0.999268C13.4183 0.999268 17 4.58099 17 8.99927Z" fill="#FFD400" stroke="#FFD400" stroke-width="2"/>
</mask>
<g mask="url(#mask0)">
<path d="M18 10.1243C18 10.1243 12.375 12.9368 7.3125 10.1243C2.25 7.3118 0 10.1243 0 10.1243" stroke="white" stroke-width="2" stroke-linecap="round" stroke-linejoin="round"/>
</g>
</svg>
