<svg width="13" height="20" viewBox="0 0 13 20" fill="none" xmlns="http://www.w3.org/2000/svg">
<path d="M0.316504 17.6341L7.94984 10.0007L0.316504 2.35073L2.6665 0.000732422L12.6665 10.0007L2.6665 20.0007L0.316504 17.6341Z" fill="#3D5ECC"/>
</svg>
