<svg width="13" height="20" viewBox="0 0 13 20" fill="none" xmlns="http://www.w3.org/2000/svg">
<path d="M0.316504 17.6333L7.94984 10L0.316504 2.35L2.6665 0L12.6665 10L2.6665 20L0.316504 17.6333Z" fill="white"/>
</svg>
