<svg width="375" height="539" viewBox="0 0 375 539" fill="none" 
    xmlns="http://www.w3.org/2000/svg" preserveAspectRatio="none">
    <path fill-rule="evenodd" clip-rule="evenodd"
        d="M159.571 -29.7042C165.885 3.176 169.472 40.3803 148.055 66.2837C127.488 91.1589 90.6364 89.2469 58.4472 92.6012C30.0004 95.5656 1.96971 96.8013 -23.6182 84.1733C-53.9017 69.2278 -91.1415 50.7509 -94.2119 17.2613C-97.2451 -15.8224 -55.371 -32.2672 -36.833 -59.9628C-17.67 -88.5921 -18.0797 -133.441 14.4592 -145.092C48.3825 -157.239 85.3744 -136.13 113.476 -113.784C139.54 -93.0588 153.308 -62.3136 159.571 -29.7042Z"
        fill="#3D5ECC" />
    <path
        d="M253.132 326.114C260.132 342.781 272 350 310 350C348 350 360 332 366.132 309.114C372.263 286.228 376.132 269.114 348.132 262.114C320.132 255.114 311.132 283.114 292.132 290.114C273.132 297.114 246.132 282.114 253.132 326.114Z"
        fill="#FFD400" />
    <path d="M40.2502 528.944L18.9998 523.25C22.2536 511.107 35.319 504.847 45.9442 507.694L40.2502 528.944Z"
        fill="white" />
    <path d="M326.25 318.944L305 313.25C308.254 301.107 321.319 294.847 331.944 297.694L326.25 318.944Z" fill="white" />
    <path d="M260.25 65.9444L239 60.2504C242.254 48.1073 255.319 41.847 265.944 44.694L260.25 65.9444Z" fill="white" />
    <path
        d="M319 191.956L322.882 177.467L337.371 181.349L341.254 166.86L355.743 170.742L359.625 156.253L374.114 160.136L377.996 145.647L392.485 149.529"
        stroke="white" stroke-width="5" />
    <path
        d="M11.0002 212.956L14.8825 198.467L29.3714 202.349L33.2536 187.86L47.7425 191.742L51.6247 177.253L66.1135 181.136L69.9958 166.647L84.4847 170.529"
        stroke="white" stroke-width="5" />
    <path
        d="M326 522.956L329.882 508.467L344.371 512.349L348.254 497.86L362.743 501.742L366.625 487.253L381.114 491.136L384.996 476.647L399.485 480.529"
        stroke="white" stroke-width="5" />
</svg>
