<svg width="96" height="96" viewBox="0 0 96 96" fill="none" xmlns="http://www.w3.org/2000/svg">
<path d="M9.58203 45.9071L14.287 41.2022L23.0227 49.9379L37.3104 35.6501L42.0154 40.3551L23.0247 59.3498L9.58203 45.9071Z" fill="#3F51B5"/>
<rect x="48.5542" y="43.2546" width="38.0217" height="7.60434" fill="#90CAF9"/>
<path d="M9.58203 21.257L14.287 16.552L23.0227 25.2877L37.3104 11L42.0154 15.7049L23.0247 34.6997L9.58203 21.257Z" fill="#3F51B5"/>
<rect x="48.5542" y="18.6042" width="38.0217" height="7.60434" fill="#90CAF9"/>
<path d="M9.58203 70.5573L14.287 65.8523L23.0227 74.588L37.3104 60.3003L42.0154 65.0052L23.0247 84L9.58203 70.5573Z" fill="#3F51B5"/>
<rect x="48.5542" y="67.9045" width="38.0217" height="7.60434" fill="#90CAF9"/>
</svg>
