<svg width="96" height="97" viewBox="0 0 96 97" fill="none" xmlns="http://www.w3.org/2000/svg">
<rect x="15" y="4.99805" width="65" height="88" rx="32" fill="#D7CCC8"/>
<path d="M27 32.998H68V69.498L60 79.498L48.5 82.998L35 79.498L27 69.498V32.998Z" fill="#448AFF"/>
<rect x="39" y="23.998" width="17" height="4" rx="2" fill="white"/>
<path d="M60 47.498C60 51.0622 56.9107 53.9564 53.0829 53.9976C53.0553 53.9979 53.0277 53.998 53 53.998C52.2191 53.998 51.4681 53.8793 50.7668 53.6602C47.9958 52.7947 46 50.3628 46 47.498C46 43.9082 49.134 40.998 53 40.998C56.866 40.998 60 43.9082 60 47.498Z" fill="white"/>
<path d="M51 51.998C51 52.5747 50.9186 53.1324 50.7668 53.6602C50.1292 55.8763 48.2487 57.5662 45.9286 57.9266C45.6259 57.9736 45.3158 57.998 45 57.998C41.6863 57.998 39 55.3118 39 51.998C39 48.6843 41.6863 45.998 45 45.998C48.3137 45.998 51 48.6843 51 51.998Z" fill="white"/>
<path d="M46 56.998C46 57.3139 45.9756 57.624 45.9286 57.9266C45.4823 60.7994 42.9979 62.998 40 62.998C36.6863 62.998 34 60.3118 34 56.998C34 53.6843 36.6863 50.998 40 50.998C43.3137 50.998 46 53.6843 46 56.998Z" fill="white"/>
<path d="M65 52.998C65 56.1983 62.4945 58.8133 59.3381 58.9887C59.2262 58.9949 59.1135 58.998 59 58.998C56.0268 58.998 53.5588 56.8355 53.0829 53.9976C53.0284 53.6725 53 53.3386 53 52.998C53 49.6843 55.6863 46.998 59 46.998C62.3137 46.998 65 49.6843 65 52.998Z" fill="white"/>
<path d="M71 56.998C71 60.3118 68.3137 62.998 65 62.998C62.3841 62.998 60.1591 61.324 59.3381 58.9887C59.1191 58.3658 59 57.6958 59 56.998C59 53.6843 61.6863 50.998 65 50.998C68.3137 50.998 71 53.6843 71 56.998Z" fill="white"/>
<path d="M53.0829 53.9976C53.0553 53.9979 53.0277 53.998 53 53.998C52.2191 53.998 51.4681 53.8793 50.7668 53.6602C50.1292 55.8763 48.2487 57.5662 45.9286 57.9266C45.4823 60.7994 42.9979 62.998 40 62.998H65C62.3841 62.998 60.1591 61.324 59.3381 58.9887C59.2262 58.9949 59.1135 58.998 59 58.998C56.0268 58.998 53.5588 56.8355 53.0829 53.9976Z" fill="white"/>
<path fill-rule="evenodd" clip-rule="evenodd" d="M47.5 12.998C33.969 12.998 23 23.9671 23 37.498V60.498C23 74.029 33.969 84.998 47.5 84.998C61.031 84.998 72 74.029 72 60.498V37.498C72 23.9671 61.031 12.998 47.5 12.998ZM47.5 16.998C36.1782 16.998 27 26.1762 27 37.498V60.498C27 71.8199 36.1782 80.998 47.5 80.998C58.8218 80.998 68 71.8199 68 60.498V37.498C68 26.1762 58.8218 16.998 47.5 16.998Z" fill="#A1887F"/>
</svg>
