<svg width="96" height="96" viewBox="0 0 96 96" fill="none" xmlns="http://www.w3.org/2000/svg">
<path fill-rule="evenodd" clip-rule="evenodd" d="M48 16C50.2091 16 52 14.2091 52 12H74C77.3137 12 80 14.6863 80 18V86C80 89.3137 77.3137 92 74 92H22C18.6863 92 16 89.3137 16 86V18C16 14.6863 18.6863 12 22 12H44C44 14.2091 45.7909 16 48 16Z" fill="#455A64"/>
<rect x="21" y="17" width="54" height="70" rx="2" fill="white"/>
<rect x="29" y="56" width="38" height="4" fill="#CFD8DC"/>
<rect x="29" y="64" width="38" height="4" fill="#CFD8DC"/>
<rect x="29" y="72" width="38" height="4" fill="#CFD8DC"/>
<rect x="55" y="48" width="12" height="4" fill="#CFD8DC"/>
<rect x="55" y="40" width="12" height="4" fill="#CFD8DC"/>
<rect x="55" y="32" width="12" height="4" fill="#CFD8DC"/>
<path fill-rule="evenodd" clip-rule="evenodd" d="M48 20C52.4183 20 56 16.4183 56 12C56 7.58172 52.4183 4 48 4C43.5817 4 40 7.58172 40 12C40 16.4183 43.5817 20 48 20ZM48 16C50.2091 16 52 14.2091 52 12C52 9.79086 50.2091 8 48 8C45.7909 8 44 9.79086 44 12C44 14.2091 45.7909 16 48 16Z" fill="#90A4AE"/>
<path fill-rule="evenodd" clip-rule="evenodd" d="M44 12H29V19C29 21.7614 31.2386 24 34 24H62C64.7614 24 67 21.7614 67 19V12H52C52 14.2091 50.2091 16 48 16C45.7909 16 44 14.2091 44 12Z" fill="#90A4AE"/>
<path d="M35 32H43V52H35V32Z" fill="#F44336"/>
<path d="M29 38H49V46H29V38Z" fill="#F44336"/>
</svg>
