<svg preserveAspectRatio="none" width="375" height="766" viewBox="0 0 375 766" fill="none" xmlns="http://www.w3.org/2000/svg">
<path d="M677.898 236.065C661.127 124.085 587.396 237.843 353.839 474.98C120.283 712.118 38.1509 581.716 -14.5644 523.674" stroke="#FFD400" stroke-width="3"/>
</svg>
