<svg preserveAspectRatio="none" width="768" height="936" viewBox="0 0 768 936" fill="none" xmlns="http://www.w3.org/2000/svg">
<path d="M-126.435 398.504C-67.2077 266.839 24.0646 375.265 347.565 579.004C671.065 782.742 844.484 611.95 948.632 531.421" stroke="#FFD400" stroke-width="3"/>
</svg>
